…
|  Odds ratio|  Lower bound|  Upper bound|
|-----------:|------------:|------------:|
|       0.441|        0.313|         0.62|

``` r
murder %>% 
  group_by(city_state) %>% 
  nest() %>% 
  mutate(logit_solve = map(data, ~glm(solved ~ victim_sex + victim_race + victim_age, family = binomial, data = .x)))
```

    ## # A tibble: 47 x 3
    ##    city_state      data                  logit_solve
    ##    <chr>           <list>                <list>     
    ##  1 Albuquerque, NM <tibble [378 x 11]>   <S3: glm>  
    ##  2 Atlanta, GA     <tibble [973 x 11]>   <S3: glm>  
    ##  3 Baltimore, MD   <tibble [2,827 x 11]> <S3: glm>  
    ##  4 Baton Rouge, LA <tibble [424 x 11]>   <S3: glm>  
    ##  5 Birmingham, AL  <tibble [800 x 11]>   <S3: glm>  
    ##  6 Boston, MA      <tibble [614 x 11]>   <S3: glm>  
    ##  7 Buffalo, NY     <tibble [521 x 11]>   <S3: glm>  
    ##  8 Charlotte, NC   <tibble [687 x 11]>   <S3: glm>  
    ##  9 Chicago, IL     <tibble [5,535 x 11]> <S3: glm>  
    ## 10 Cincinnati, OH  <tibble [694 x 11]>   <S3: glm>  
    ## # ... with 37 more rows
